<svg width="24" height="24" viewBox="0 0 24 24" fill="none" xmlns="http://www.w3.org/2000/svg">
<path d="M19.2005 13.6C20.7505 15.04 21.0705 15.73 21.1205 15.82C21.7605 16.88 20.4205 16.96 20.4205 16.96L17.8405 17C17.8405 17 17.2805 17.11 16.5605 16.61C15.5905 15.95 14.6605 14.22 13.9705 14.45C13.2605 14.68 13.2805 16.23 13.2805 16.23C13.2805 16.23 13.2805 16.45 13.1205 16.62C12.9405 16.81 12.5905 16.74 12.5905 16.74H11.4405C11.4405 16.74 8.89049 17 6.66049 14.67C4.21049 12.13 2.05049 7.13 2.05049 7.13C2.05049 7.13 1.93049 6.83 2.06049 6.66C2.21049 6.5 2.63049 6.5 2.63049 6.5H5.39048C5.39048 6.5 5.66049 6.5 5.83049 6.66C5.98049 6.77 6.07049 7 6.07049 7C6.07049 7 6.51049 8.11 7.11049 9.13C8.26049 11.12 8.79049 11.55 9.16049 11.34C9.76049 11.03 9.59048 8.53 9.59048 8.53C9.59048 8.53 9.60049 7.62 9.30049 7.22C9.07049 6.91 8.63049 6.81 8.44049 6.79C8.28049 6.77 8.5405 6.41 8.8705 6.24C9.3705 6 10.2405 6 11.2805 6C12.0905 6 12.3205 6.06 12.6305 6.13C13.5905 6.36 13.2605 7.25 13.2605 9.37C13.2605 10.06 13.1605 11 13.6305 11.33C13.8405 11.47 14.3605 11.35 15.6605 9.16C16.2605 8.12 16.7205 6.89 16.7205 6.89C16.7205 6.89 16.8205 6.68 16.9705 6.58C17.1305 6.5 17.3505 6.5 17.3505 6.5H20.2505C20.2505 6.5 21.1305 6.4 21.2705 6.79C21.4205 7.2 20.9405 8.17 19.7505 9.74C17.8105 12.34 17.5905 12.1 19.2005 13.6Z" fill="white"/>
</svg>
